<?xml version="1.0" encoding="utf-8"?>
<!-- Generator: Adobe Illustrator 22.0.1, SVG Export Plug-In . SVG Version: 6.00 Build 0)  -->
<svg version="1.1" id="Layer_1" xmlns="http://www.w3.org/2000/svg" xmlns:xlink="http://www.w3.org/1999/xlink" x="0px" y="0px"
	 viewBox="0 0 188 79.6" style="enable-background:new 0 0 188 79.6;" xml:space="preserve">
<style type="text/css">
	.st0{fill:#ED1C24;}
</style>
<g>
	<path class="st0" d="M59.9,64.9c0-1.6-1.5-2-3.5-2h-4v4h4C58.1,66.9,59.9,66.3,59.9,64.9z"/>
	<polygon class="st0" points="80.1,57.4 79.9,57.4 77.3,63.1 82.6,63.1 	"/>
	<path class="st0" d="M0,79.6h187.7V43.2H0V79.6z M122,52.4h7.1v7.1h0.1l7.2-7.1h6.8l-6.1,5.9l7.8,11.9h-7.6l-4.9-7.6l-3.2,3.1v4.5
		h-7.1V52.4H122z M96.1,52.4L96.1,52.4h6.7l8.9,9.4v-9.4h5.5v17.8h-5.4l-10.1-10h-0.1v10h-5.5V52.4z M76.9,52.5h7.6L93,70.3h-7.4
		l-1.5-3.4h-8.5L74,70.3h-5.6L76.9,52.5z M45.2,52.4h12.1c5.6,0,9.2,1.8,9.2,4.6c0,2.1-2.4,3.4-5,3.9c3.1,0.5,5.6,2,5.6,4.4
		c0,2.2-1.8,4.8-9,4.8h-13V52.4H45.2z"/>
	<path class="st0" d="M59.6,57.7c0-1.5-1.9-1.9-3.6-1.9h-3.6v3.8H56C57.7,59.5,59.6,59.2,59.6,57.7z"/>
	<polygon class="st0" points="21.6,34.6 17.6,34.6 17.6,2.6 21.6,2.6 21.6,0.6 0.1,0.6 0.1,2.6 4.1,2.6 4.1,34.7 0.1,34.7 0.1,36.7 
		21.6,36.7 	"/>
	<path class="st0" d="M155.5,33.4c3.4,2.8,7.9,4.4,12.9,4.4c11.6,0,19.6-8.4,19.6-18.9S180,0,168.4,0c-5.9,0-10.8,1.9-14.4,5.6
		c-3.2,3.2-5.2,8.2-5.1,13.2C148.9,24.4,151.4,30,155.5,33.4z M164.6,7.7c0-4.4,1.2-6.2,3.8-6.2c2.4,0,3.8,1.9,3.8,6.2V30
		c0,4.4-1.2,6.2-3.8,6.2s-3.8-2-3.8-6.4V7.7z"/>
	<path class="st0" d="M121.1,34.5c-0.1,0-0.1,0-0.3,0c-3.9,0-4.2-0.9-4.2-4V8.3l20.5,28.4h7.1V6.5c0-3.1,0.5-4,4.5-4h0.4v-2h-12v2
		h0.1c4,0,4.5,1,4.5,4v13.4L127.8,0.5h-17.9v2h0.2c0.9,0,2.2,0.1,2.9,1c0.2,0.3,0.6,0.9,1.1,1.6v25.4c0,3.1-0.3,4-4.1,4h-0.1v2.1
		H121L121.1,34.5L121.1,34.5z"/>
	<polygon class="st0" points="45.2,34.5 41.8,34.5 41.8,18.1 41.8,2.5 45.2,2.5 45.2,0.5 24.4,0.5 24.4,2.5 28,2.5 28,34.5 
		24.4,34.5 24.4,36.6 45.2,36.6 	"/>
	<path class="st0" d="M47.4,34.5v2.1h31.1v-2.1H78c-0.2,0-0.9,0-1-0.1c-2.5-0.6-2-2.6-1.4-4l1.9-5.2H88l3.4,9.5h-3.1v2.1h20.1v-2.1
		h-2.5l-12.4-34h-9.9L73,30.7c-0.6,1.9-1.8,3.1-3.1,3.8c-0.5,0.2-1.1,0.4-1.8,0.4h-1.6l-14-24.4c0,0,4.6-4.6,5.1-5.1
		c1.5-1.5,3.9-2.4,5.6-2.6C64,2.7,65,2.7,65.8,2.7v-2H49.4v2h1.8c0.9,0,2.5,0,3.1,1.1c0.4,0.8,0.1,2-0.9,2.9L41.8,18.1l9.5,16.4
		H47.4z M82.7,10.5l4.5,12.4h-8.9L82.7,10.5z"/>
</g>
</svg>
